{
	"db": {
		"connectionString": "mongodb+srv://pcbuilder-management-01:aRs5QeejMr8pnfHS@cluster0-brmkk.mongodb.net/pcbuilder?retryWrites=true&w=majority",
		"secretKey": "MyServerSuperSecretKey-123454321AbCd-"
	}
}
